Analyzing intensifying constructions found in tweets in R: frequencies, collocations, and variation across groups
…
Collocations

From the adjectives that are intensified, what are the intensifiers used by twitter account?

We will start by filtering the data to keep only adjectives that are intensified. We will then calculate how many of each intensifier we have per twitter account. Totals and percentages are then calculated.

# intensifier
intense_data %>%
  filter(intensifier == 1) %>%
  group_by(account, intensifier_lemma) %>%
  summarize(n = n()) %>%
  mutate(total = sum(n),
         percent = n/total)

# A tibble: 38 × 5
# Groups:   account [4]
   account intensifier_lemma     n total percent
   <chr>   <chr>             <int> <int>   <dbl>
 1 anitta  bem                   9    68 0.132  
 2 anitta  demais                1    68 0.0147 
 3 anitta  mais                 16    68 0.235  
 4 anitta  muito                26    68 0.382  
 5 anitta  pouco                 1    68 0.0147 
 6 anitta  realmente             1    68 0.0147 
 7 anitta  super                 4    68 0.0588 
 8 anitta  tão                  10    68 0.147  
 9 g1      bem                   3   101 0.0297 
10 g1      demais                1   101 0.00990
# … with 28 more rows
…
